{
	"builders":[{
		"type": "amazon-ebs",
		"access_Key":"{{user `aws_access_key`}}",
		"secret_key":"{{user `aws_secret_key`}}",
		"region":"us-west-1",
		"profile": "cr-training",
		"source_ami":"ami-4aa04129",
		"instance_type":"t2.micro",
		"ssh_username":"ubuntu",
		"ami_name":"bo-webserver",
		"subnet_id":"subnet-06f87b22b1d34d744"
		}],
	"Provisioners":[{
		"type":"shell",
		"script":"./apache.sh"
	}]
}
